…
One way to analyze the sentiment of a text is to consider the text as a combination of its individual words and the sentiment content of the whole text as the sum of the sentiment content of the individual words. This isn't the only way to approach sentiment analysis, but it is an often-used approach, *and* an approach that naturally takes advantage of the tidy tool ecosystem.

2.1 The `sentiments` dataset
----------------------------

As discussed above, there are a variety of methods and dictionaries that exist for evaluating the opinion or emotion in text. The tidytext package contains several sentiment lexicons in the `sentiments` dataset.

``` r
library(tidytext)

sentiments
```

    ## # A tibble: 27,314 x 4
    ##    word        sentiment lexicon score
    ##    <chr>       <chr>     <chr>   <int>
    ##  1 abacus      trust     nrc        NA
    ##  2 abandon     fear      nrc        NA
    ##  3 abandon     negative  nrc        NA
    ##  4 abandon     sadness   nrc        NA
    ##  5 abandoned   anger     nrc        NA
    ##  6 abandoned   fear      nrc        NA
    ##  7 abandoned   negative  nrc        NA
    ##  8 abandoned   sadness   nrc        NA
    ##  9 abandonment anger     nrc        NA
    ## 10 abandonment fear      nrc        NA
    ## # ... with 27,304 more rows
The three general-purpose lexicons are

-   `AFINN` from [Finn Årup Nielsen](http://www2.imm.dtu.dk/pubdb/views/publication_details.php?id=6010),
-   `bing` from [Bing Liu and collaborators](https://www.cs.uic.edu/~liub/FBS/sentiment-analysis.html), and
-   `nrc` from [Saif Mohammad and Peter Turney](http://saifmohammad.com/WebPages/NRC-Emotion-Lexicon.htm).

All three of these lexicons are based on unigrams, i.e., single words. These lexicons contain many English words and the words are assigned scores for positive/negative sentiment, and also possibly emotions like joy, anger, sadness, and so forth. The `nrc` lexicon categorizes words in a binary fashion ("yes"/"no") into categories of positive, negative, anger, anticipation, disgust, fear, joy, sadness, surprise, and trust. The `bing` lexicon categorizes words in a binary fashion into positive and negative categories. The `AFINN` lexicon assigns words with a score that runs between -5 and 5, with negative scores indicating negative sentiment and positive scores indicating positive sentiment. All of this information is tabulated in the `sentiments` dataset, and tidytext provides a function `get_sentiments()` to get specific sentiment lexicons without the columns that are not used in that lexicon.

``` r
get_sentiments("afinn")
get_sentiments("bing")
get_sentiments("nrc")
```

    ## # A tibble: 2,476 x 2
    ##    word       score
    ##    <chr>      <int>
    ##  1 abandon       -2
    ##  2 abandoned     -2
    ##  3 abandons      -2
    ##  4 abducted      -2
    ##  5 abduction     -2
    ##  6 abductions    -2
    ##  7 abhor         -3
    ##  8 abhorred      -3
    ##  9 abhorrent     -3
    ## 10 abhors        -3
    ## # ... with 2,466 more rows
    ## # A tibble: 6,788 x 2
    ##    word        sentiment
    ##    <chr>       <chr>    
    ##  1 2-faced     negative 
    ##  2 2-faces     negative 
    ##  3 a+          positive 
    ##  4 abnormal    negative 
    ##  5 abolish     negative 
    ##  6 abominable  negative 
    ##  7 abominably  negative 
    ##  8 abominate   negative 
    ##  9 abomination negative 
    ## 10 abort       negative 
    ## # ... with 6,778 more rows
    ## # A tibble: 13,901 x 2
    ##    word        sentiment
    ##    <chr>       <chr>    
    ##  1 abacus      trust    
    ##  2 abandon     fear     
    ##  3 abandon     negative 
    ##  4 abandon     sadness  
    ##  5 abandoned   anger    
    ##  6 abandoned   fear     
    ##  7 abandoned   negative 
    ##  8 abandoned   sadness  
    ##  9 abandonment anger    
    ## 10 abandonment fear     
    ## # ... with 13,891 more rows
…
tidy_books <- austen_books() %>%
  group_by(book) %>%
  mutate(linenumber = row_number(),
         chapter = cumsum(str_detect(text, regex(
             "^chapter [\\divxlc]", ignore_case = TRUE
         )))) %>%
  ungroup() %>%
  unnest_tokens(word, text)

tidy_books
```

    ## # A tibble: 725,055 x 4
    ##    book                linenumber chapter word       
    ##    <fct>                    <int>   <int> <chr>      
    ##  1 Sense & Sensibility          1       0 sense      
    ##  2 Sense & Sensibility          1       0 and        
    ##  3 Sense & Sensibility          1       0 sensibility
    ##  4 Sense & Sensibility          3       0 by         
    ##  5 Sense & Sensibility          3       0 jane       
    ##  6 Sense & Sensibility          3       0 austen     
    ##  7 Sense & Sensibility          5       0 1811       
    ##  8 Sense & Sensibility         10       1 chapter    
    ##  9 Sense & Sensibility         10       1 1          
    ## 10 Sense & Sensibility         13       1 the        
    ## # ... with 725,045 more rows
Notice that we chose the name `word` for the output column from `unnest_tokens()`. This is a convenient choice because the sentiment lexicons and stop word datasets have columns named `word`; performing inner joins and anti-joins is thus easier.

Now that the text is in a tidy format with one word per row, we are ready to do the sentiment analysis. First, let's use the NRC lexicon and `filter()` for the joy words. Next, let's `filter()` the data frame with the text from the books for the words from *Emma* and then use `inner_join()` to perform the sentiment analysis. What are the most common joy words in *Emma*? Let's use `count()` from dplyr.

``` r
nrc_joy <- get_sentiments("nrc") %>% 
  filter(sentiment == "joy")

tidy_books %>%
  filter(book == "Emma") %>%
  inner_join(nrc_joy) %>%  # dplyr provides various join methods
  count(word, sort = TRUE)
```

    ## # A tibble: 303 x 2
    ##    word        n
    ##    <chr>   <int>
    ##  1 good      359
    ##  2 young     192
    ##  3 friend    166
    ##  4 hope      143
    ##  5 happy     125
    ##  6 love      117
    ##  7 deal       92
    ##  8 found      92
    ##  9 present    89
    ## 10 kind       82
    ## # ... with 293 more rows
…
We can see in Figure 2.2 how the plot of each novel changes toward more positive or negative sentiment over the trajectory of the story.

2.3 Comparing the three sentiment dictionaries
----------------------------------------------

With several options for sentiment lexicons, you might want some more information on which one is appropriate for your purposes. Let's use all three sentiment lexicons and examine how the sentiment changes across the narrative arc of *Pride and Prejudice*. First, let's use `filter()` to choose only the words from the one novel we are interested in.

``` r
pride_prejudice <- tidy_books %>%
  filter(book == "Pride & Prejudice")

pride_prejudice
```

    ## # A tibble: 122,204 x 4
    ##    book              linenumber chapter word     
    ##    <fct>                  <int>   <int> <chr>    
    ##  1 Pride & Prejudice          1       0 pride    
    ##  2 Pride & Prejudice          1       0 and      
    ##  3 Pride & Prejudice          1       0 prejudice
    ##  4 Pride & Prejudice          3       0 by       
    ##  5 Pride & Prejudice          3       0 jane     
    ##  6 Pride & Prejudice          3       0 austen   
    ##  7 Pride & Prejudice          7       1 chapter  
    ##  8 Pride & Prejudice          7       1 1        
    ##  9 Pride & Prejudice         10       1 it       
    ## 10 Pride & Prejudice         10       1 is       
    ## # ... with 122,194 more rows
…
afinn
bing_and_nrc
```

    ## # A tibble: 163 x 3
    ##    index sentiment method
    ##    <dbl>     <int> <chr> 
    ##  1     0        29 AFINN 
    ##  2     1         0 AFINN 
    ##  3     2        20 AFINN 
    ##  4     3        30 AFINN 
    ##  5     4        62 AFINN 
    ##  6     5        66 AFINN 
    ##  7     6        60 AFINN 
    ##  8     7        18 AFINN 
    ##  9     8        84 AFINN 
    ## 10     9        26 AFINN 
    ## # ... with 153 more rows
    ## # A tibble: 326 x 5
    ##    method      index negative positive sentiment
    ##    <chr>       <dbl>    <dbl>    <dbl>     <dbl>
    ##  1 Bing et al.     0        7       21        14
    ##  2 Bing et al.     1       20       19        -1
    ##  3 Bing et al.     2       16       20         4
    ##  4 Bing et al.     3       19       31        12
    ##  5 Bing et al.     4       23       47        24
    ##  6 Bing et al.     5       15       49        34
    ##  7 Bing et al.     6       18       46        28
    ##  8 Bing et al.     7       23       33        10
    ##  9 Bing et al.     8       17       48        31
    ## 10 Bing et al.     9       22       40        18
    ## # ... with 316 more rows
…
2.4 Most common positive and negative words
-------------------------------------------

One advantage of having the data frame with both sentiment and word is that we can analyze word counts that contribute to each sentiment. By implementing `count()` here with arguments of both `word` and `sentiment`, we find out how much each word contributed to each sentiment.

``` r
bing_word_counts <- tidy_books %>%
  inner_join(get_sentiments("bing")) %>%
  count(word, sentiment, sort = TRUE) #%>%
  #ungroup()

bing_word_counts
```

    ## # A tibble: 2,585 x 3
    ##    word     sentiment     n
    ##    <chr>    <chr>     <int>
    ##  1 miss     negative   1855
    ##  2 well     positive   1523
    ##  3 good     positive   1380
    ##  4 great    positive    981
    ##  5 like     positive    725
    ##  6 better   positive    639
    ##  7 enough   positive    613
    ##  8 happy    positive    534
    ##  9 love     positive    495
    ## 10 pleasure positive    462
    ## # ... with 2,575 more rows
…
(Figure 2.4: Words that contribute to positive and negative sentiment in Jane Austen's novels)

Figure 2.4 lets us spot an anomaly in the sentiment analysis; the word "miss" is coded as negative but it is used as a title for young, unmarried women in Jane Austen's works. If it were appropriate for our purposes, we could easily add "miss" to a custom stop-words list using `bind_rows()`. We could implement that with a strategy such as this.

``` r
custom_stop_words <- bind_rows(
  data_frame(word = c("miss"), lexicon = c("custom")), 
  stop_words
)

custom_stop_words
```

    ## # A tibble: 1,150 x 2
    ##    word        lexicon
    ##    <chr>       <chr>  
    ##  1 miss        custom 
    ##  2 a           SMART  
    ##  3 a's         SMART  
    ##  4 able        SMART  
    ##  5 about       SMART  
    ##  6 above       SMART  
    ##  7 according   SMART  
    ##  8 accordingly SMART  
    ##  9 across      SMART  
    ## 10 actually    SMART  
    ## # ... with 1,140 more rows
…
Lots of useful work can be done by tokenizing at the word level, but sometimes it is useful or necessary to look at different units of text. For example, some sentiment analysis algorithms look beyond only unigrams (i.e. single words) to try to understand the sentiment of a sentence as a whole. These algorithms try to understand that

> I am not having a good day.

is a sad sentence, not a happy one, because of negation. R packages included coreNLP, cleanNLP, and sentimentr are examples of such sentiment analysis algorithms. For these, we may want to tokenize text into sentences, and it makes sense to use a new name for the output column in such a case.

``` r
PandP_sentences <- data_frame(text = prideprejudice) %>%
  unnest_tokens(sentence, text, token = "sentences")

PandP_sentences
```

    ## # A tibble: 7,066 x 1
    ##    sentence                                                                                         
    ##    <chr>                                                                                            
    ##  1 pride and prejudice  by jane austen    chapter 1   it is a truth universally acknowledged, that …
    ##  2 however little known the feelings or views of such a man may be on his first entering a neighbou…
    ##  3 "\"my dear mr."                                                                                  
    ##  4 "bennet,\" said his lady to him one day, \"have you heard that netherfield park is let at last?\…
    ##  5 mr.                                                                                              
    ##  6 bennet replied that he had not.                                                                  
    ##  7 "\"but it is,\" returned she; \"for mrs."                                                        
    ##  8 "long has just been here, and she told me all about it.\""                                       
    ##  9 mr.                                                                                              
    ## 10 bennet made no answer.                                                                           
    ## # ... with 7,056 more rows
…
