…
We do this by adding the `token = "ngrams"` option to `unnest_tokens()`, and setting `n` to the number of words we wish to capture in each n-gram. When we set `n` to 2, we are examining pairs of two consecutive words, often called "bigrams":

``` r
library(dplyr)
library(tidytext)
library(janeaustenr)

austen_bigrams <- austen_books() %>%
  unnest_tokens(bigram, text, token = "ngrams", n = 2)

austen_bigrams
```

    ## # A tibble: 725,049 x 2
    ##    book                bigram         
    ##    <fct>               <chr>          
    ##  1 Sense & Sensibility sense and      
    ##  2 Sense & Sensibility and sensibility
    ##  3 Sense & Sensibility sensibility by 
    ##  4 Sense & Sensibility by jane        
    ##  5 Sense & Sensibility jane austen    
    ##  6 Sense & Sensibility austen 1811    
    ##  7 Sense & Sensibility 1811 chapter   
    ##  8 Sense & Sensibility chapter 1      
    ##  9 Sense & Sensibility 1 the          
    ## 10 Sense & Sensibility the family     
    ## # ... with 725,039 more rows

This data structure is still a variation of the tidy text format. It is structured as one-token-per-row (with extra metadata, such as `book`, still preserved), but each token now represents a bigram.

> Notice that these bigrams overlap: "sense and" is one token, while "and sensibility" is another.

### 4.1.1 Counting and filtering n-grams

Our usual tidy tools apply equally well to n-gram analysis. We can examine the most common bigrams using dplyr's `count()`:

``` r
austen_bigrams %>%
  count(bigram, sort = TRUE)
```

    ## # A tibble: 211,236 x 2
    ##    bigram       n
    ##    <chr>    <int>
    ##  1 of the    3017
    ##  2 to be     2787
    ##  3 in the    2368
    ##  4 it was    1781
    ##  5 i am      1545
    ##  6 she had   1472
    ##  7 of her    1445
    ##  8 to the    1387
    ##  9 she was   1377
    ## 10 had been  1299
    ## # ... with 211,226 more rows
…
bigrams_separated

bigrams_filtered <- bigrams_separated %>%
  filter(!word1 %in% stop_words$word) %>%
  filter(!word2 %in% stop_words$word)

# new bigram counts:
bigram_counts <- bigrams_filtered %>% 
  count(word1, word2, sort = TRUE)

bigram_counts
```

    ## # A tibble: 725,049 x 3
    ##    book                word1       word2      
    ##    <fct>               <chr>       <chr>      
    ##  1 Sense & Sensibility sense       and        
    ##  2 Sense & Sensibility and         sensibility
    ##  3 Sense & Sensibility sensibility by         
    ##  4 Sense & Sensibility by          jane       
    ##  5 Sense & Sensibility jane        austen     
    ##  6 Sense & Sensibility austen      1811       
    ##  7 Sense & Sensibility 1811        chapter    
    ##  8 Sense & Sensibility chapter     1          
    ##  9 Sense & Sensibility 1           the        
    ## 10 Sense & Sensibility the         family     
    ## # ... with 725,039 more rows
    ## # A tibble: 33,421 x 3
    ##    word1   word2         n
    ##    <chr>   <chr>     <int>
    ##  1 sir     thomas      287
    ##  2 miss    crawford    215
    ##  3 captain wentworth   170
    ##  4 miss    woodhouse   162
    ##  5 frank   churchill   132
    ##  6 lady    russell     118
    ##  7 lady    bertram     114
    ##  8 sir     walter      113
    ##  9 miss    fairfax     109
    ## 10 colonel brandon     108
    ## # ... with 33,411 more rows

We can see that names (whether first and last or with a salutation) are the most common pairs in Jane Austen books.

In other analyses, we may want to work with the recombined words. tidyr's `unite()` function is the inverse of `separate()`, and lets us recombine the columns into one. Thus, "separate/filter/count/unite" let us find the most common bigrams not containing stop-words.

``` r
bigrams_united <- bigrams_filtered %>%
  unite(bigram, word1, word2, sep = " ")

bigrams_united
```

    ## # A tibble: 44,784 x 2
    ##    book                bigram                  
    ##    <fct>               <chr>                   
    ##  1 Sense & Sensibility jane austen             
    ##  2 Sense & Sensibility austen 1811             
    ##  3 Sense & Sensibility 1811 chapter            
    ##  4 Sense & Sensibility chapter 1               
    ##  5 Sense & Sensibility norland park            
    ##  6 Sense & Sensibility surrounding acquaintance
    ##  7 Sense & Sensibility late owner              
    ##  8 Sense & Sensibility advanced age            
    ##  9 Sense & Sensibility constant companion      
    ## 10 Sense & Sensibility happened ten            
    ## # ... with 44,774 more rows

In other analyses you may be interested in the most common trigrams, which are consecutive sequences of 3 words. We can find this by setting `n = 3`:

``` r
austen_books() %>%
  unnest_tokens(trigram, text, token = "ngrams", n = 3) %>%
  separate(trigram, c("word1", "word2", "word3"), sep = " ") %>%
  filter(!word1 %in% stop_words$word,
         !word2 %in% stop_words$word,
         !word3 %in% stop_words$word) %>%
  count(word1, word2, word3, sort = TRUE)
```

    ## # A tibble: 8,757 x 4
    ##    word1     word2     word3         n
    ##    <chr>     <chr>     <chr>     <int>
    ##  1 dear      miss      woodhouse    23
    ##  2 miss      de        bourgh       18
    ##  3 lady      catherine de           14
    ##  4 catherine de        bourgh       13
    ##  5 poor      miss      taylor       11
    ##  6 sir       walter    elliot       11
    ##  7 ten       thousand  pounds       11
    ##  8 dear      sir       thomas       10
    ##  9 twenty    thousand  pounds        8
    ## 10 replied   miss      crawford      7
    ## # ... with 8,747 more rows

### 4.1.2 Analyzing bigrams

This one-bigram-per-row format is helpful for exploratory analyses of the text. As a simple example, we might be interested in the most common "streets" mentioned in each book:

``` r
bigrams_filtered %>%
  filter(word2 == "street") %>%
  count(book, word1, sort = TRUE)
```

    ## # A tibble: 34 x 3
    ##    book                word1           n
    ##    <fct>               <chr>       <int>
    ##  1 Sense & Sensibility berkeley       16
    ##  2 Sense & Sensibility harley         16
    ##  3 Northanger Abbey    pulteney       14
    ##  4 Northanger Abbey    milsom         11
    ##  5 Mansfield Park      wimpole        10
    ##  6 Pride & Prejudice   gracechurch     9
    ##  7 Sense & Sensibility conduit         6
    ##  8 Sense & Sensibility bond            5
    ##  9 Persuasion          milsom          5
    ## 10 Persuasion          rivers          4
    ## # ... with 24 more rows

A bigram can also be treated as a term in a document in the same way that we treated individual words. For example, we can look at the tf-idf (Chapter 3) of bigrams across Austen novels. These tf-idf values can be visualized within each book, just as we did for words (Figure 4.1).

``` r
bigram_tf_idf <- bigrams_united %>%
  count(book, bigram) %>%
  bind_tf_idf(bigram, book, n) %>%
  arrange(desc(tf_idf))

bigram_tf_idf
```

    ## # A tibble: 36,217 x 6
    ##    book                bigram                n     tf   idf tf_idf
    ##    <fct>               <chr>             <int>  <dbl> <dbl>  <dbl>
    ##  1 Persuasion          captain wentworth   170 0.0299  1.79 0.0535
    ##  2 Mansfield Park      sir thomas          287 0.0287  1.79 0.0515
    ##  3 Mansfield Park      miss crawford       215 0.0215  1.79 0.0386
    ##  4 Persuasion          lady russell        118 0.0207  1.79 0.0371
    ##  5 Persuasion          sir walter          113 0.0198  1.79 0.0356
    ##  6 Emma                miss woodhouse      162 0.0170  1.79 0.0305
    ##  7 Northanger Abbey    miss tilney          82 0.0159  1.79 0.0286
    ##  8 Sense & Sensibility colonel brandon     108 0.0150  1.79 0.0269
    ##  9 Emma                frank churchill     132 0.0139  1.79 0.0248
    ## 10 Pride & Prejudice   lady catherine      100 0.0138  1.79 0.0247
    ## # ... with 36,207 more rows
…
There are advantages and disadvantages to examining the tf-idf of bigrams rather than individual words. Pairs of consecutive words might capture structure that isn't present when one is just counting single words, and may provide context that makes tokens more understandable (for example, "pulteney street", in Northanger Abbey, is more informative than "pulteney"). However, the per-bigram counts are also *sparser*: a typical two-word pair is rarer than either of its component words. Thus, bigrams can be especially useful when you have a very large text dataset.

### 4.1.3 Using bigrams to provide context in sentiment analysis

Our sentiment analysis approach in Chapter 2 simply counted the appearance of positive or negative words, according to a reference lexicon. One of the problems with this approach is that a word's context can matter nearly as much as its presence. For example, the words "happy" and "like" will be counted as positive, even in a sentence like "I'm not **happy** and I don't **like** it!"

Now that we have the data organized into bigrams, it's easy to tell how often words are preceded by a word like "not":

``` r
bigrams_separated %>%
  filter(word1 == "not") %>%
  count(word1, word2, sort = TRUE)
```

    ## # A tibble: 1,246 x 3
    ##    word1 word2     n
    ##    <chr> <chr> <int>
    ##  1 not   be      610
    ##  2 not   to      355
    ##  3 not   have    327
    ##  4 not   know    252
    ##  5 not   a       189
    ##  6 not   think   176
    ##  7 not   been    160
    ##  8 not   the     147
    ##  9 not   at      129
    ## 10 not   in      118
    ## # ... with 1,236 more rows

By performing sentiment analysis on the bigram data, we can examine how often sentiment-associated words are preceded by "not" or other negating words. We could use this to ignore or even reverse their contribution to the sentiment score.

Let's use the AFINN lexicon for sentiment analysis, which you may recall gives a numeric sentiment score for each word, with positive or negative numbers indicating the direction of the sentiment.

``` r
AFINN <- get_sentiments("afinn")

AFINN
```

    ## # A tibble: 2,476 x 2
    ##    word       score
    ##    <chr>      <int>
    ##  1 abandon       -2
    ##  2 abandoned     -2
    ##  3 abandons      -2
    ##  4 abducted      -2
    ##  5 abduction     -2
    ##  6 abductions    -2
    ##  7 abhor         -3
    ##  8 abhorred      -3
    ##  9 abhorrent     -3
    ## 10 abhors        -3
    ## # ... with 2,466 more rows

We can then examine the most frequent words that were preceded by "not" and were associated with a sentiment.

``` r
not_words <- bigrams_separated %>%
  filter(word1 == "not") %>%
  inner_join(AFINN, by = c(word2 = "word")) %>%
  count(word2, score, sort = TRUE) %>%
  ungroup()

not_words
```

    ## # A tibble: 245 x 3
    ##    word2   score     n
    ##    <chr>   <int> <int>
    ##  1 like        2    99
    ##  2 help        2    82
    ##  3 want        1    45
    ##  4 wish        1    39
    ##  5 allow       1    36
    ##  6 care        2    23
    ##  7 sorry      -1    21
    ##  8 leave      -1    18
    ##  9 pretend    -1    18
    ## 10 worth       2    17
    ## # ... with 235 more rows
…
"Not" isn't the only term that provides some context for the following word. We could pick four common words (or more) that negate the subsequent term, and use the same joining and counting approach to examine all of them at once.

``` r
negation_words <- c("not", "no", "never", "without")

negated_words <- bigrams_separated %>%
  filter(word1 %in% negation_words) %>%
  inner_join(AFINN, by = c(word2 = "word")) %>%
  count(word1, word2, score, sort = TRUE) %>%
  ungroup()

negated_words
```

    ## # A tibble: 531 x 4
    ##    word1 word2 score     n
    ##    <chr> <chr> <int> <int>
    ##  1 no    doubt    -1   102
    ##  2 not   like      2    99
    ##  3 not   help      2    82
    ##  4 no    no       -1    60
    ##  5 not   want      1    45
    ##  6 not   wish      1    39
    ##  7 not   allow     1    36
    ##  8 not   care      2    23
    ##  9 no    harm     -2    22
    ## 10 not   sorry    -1    21
    ## # ... with 521 more rows
…
``` r
library(igraph)

# original counts
bigram_counts

# filter for only relatively common combinations
bigram_graph <- bigram_counts %>%
  filter(n > 20) %>%
  graph_from_data_frame()

bigram_graph
```

    ## # A tibble: 33,421 x 3
    ##    word1   word2         n
    ##    <chr>   <chr>     <int>
    ##  1 sir     thomas      287
    ##  2 miss    crawford    215
    ##  3 captain wentworth   170
    ##  4 miss    woodhouse   162
    ##  5 frank   churchill   132
    ##  6 lady    russell     118
    ##  7 lady    bertram     114
    ##  8 sir     walter      113
    ##  9 miss    fairfax     109
    ## 10 colonel brandon     108
    ## # ... with 33,411 more rows
    ## IGRAPH 92fa0c4 DN-- 91 77 -- 
    ## + attr: name (v/c), n (e/n)
    ## + edges from 92fa0c4 (vertex names):
    ##  [1] sir     ->thomas     miss    ->crawford   captain ->wentworth  miss    ->woodhouse 
    ##  [5] frank   ->churchill  lady    ->russell    lady    ->bertram    sir     ->walter    
    ##  [9] miss    ->fairfax    colonel ->brandon    miss    ->bates      lady    ->catherine 
    ## [13] sir     ->john       jane    ->fairfax    miss    ->tilney     lady    ->middleton 
    ## [17] miss    ->bingley    thousand->pounds     miss    ->dashwood   miss    ->bennet    
…
Consider the book "Pride and Prejudice" divided into 10-line sections, as we did (with larger sections) for sentiment analysis in Chapter 2. We may be interested in what words tend to appear within the same section.

``` r
austen_section_words <- austen_books() %>%
  filter(book == "Pride & Prejudice") %>%
  mutate(section = row_number() %/% 10) %>%
  filter(section > 0) %>%
  unnest_tokens(word, text) %>%
  filter(!word %in% stop_words$word)

austen_section_words
```

    ## # A tibble: 37,240 x 3
    ##    book              section word        
    ##    <fct>               <dbl> <chr>       
    ##  1 Pride & Prejudice       1 truth       
    ##  2 Pride & Prejudice       1 universally 
    ##  3 Pride & Prejudice       1 acknowledged
    ##  4 Pride & Prejudice       1 single      
    ##  5 Pride & Prejudice       1 possession  
    ##  6 Pride & Prejudice       1 fortune     
    ##  7 Pride & Prejudice       1 wife        
    ##  8 Pride & Prejudice       1 feelings    
    ##  9 Pride & Prejudice       1 views       
    ## 10 Pride & Prejudice       1 entering    
    ## # ... with 37,230 more rows

One useful function from widyr is the `pairwise_count()` function. The prefix `pairwise_` means it will result in one row for each pair of words in the `word` variable. This lets us count common pairs of words co-appearing within the same section:

``` r
library(widyr)

# count words co-occuring within sections
word_pairs <- austen_section_words %>%
  pairwise_count(word, section, sort = TRUE)

word_pairs
```

    ## # A tibble: 796,008 x 3
    ##    item1     item2         n
    ##    <chr>     <chr>     <dbl>
    ##  1 darcy     elizabeth   144
    ##  2 elizabeth darcy       144
    ##  3 miss      elizabeth   110
    ##  4 elizabeth miss        110
    ##  5 elizabeth jane        106
    ##  6 jane      elizabeth   106
    ##  7 miss      darcy        92
    ##  8 darcy     miss         92
    ##  9 elizabeth bingley      91
    ## 10 bingley   elizabeth    91
    ## # ... with 795,998 more rows

Notice that while the input had one row for each pair of a document (a 10-line section) and a word, the output has one row for each pair of words. This is also a tidy format, but of a very different structure that we can use to answer new questions.

For example, we can see that the most common pair of words in a section is "Elizabeth" and "Darcy" (the two main characters). We can easily find the words that most often occur with Darcy:

``` r
word_pairs %>%
  filter(item1 == "darcy")
```

    ## # A tibble: 2,930 x 3
    ##    item1 item2         n
    ##    <chr> <chr>     <dbl>
    ##  1 darcy elizabeth   144
    ##  2 darcy miss         92
    ##  3 darcy bingley      86
    ##  4 darcy jane         46
    ##  5 darcy bennet       45
    ##  6 darcy sister       45
    ##  7 darcy time         41
    ##  8 darcy lady         38
    ##  9 darcy friend       37
    ## 10 darcy wickham      37
    ## # ... with 2,920 more rows
…
> The phi coefficient is equivalent to the Pearson correlation, which you may have heard of elsewhere, when it is applied to binary data.

The `pairwise_cor()` function in widyr lets us find the phi coefficient between words based on how often they appear in the same section. Its syntax is similar to `pairwise_count()`.

``` r
# we need to filter for at least relatively common words first
word_cors <- austen_section_words %>%
  group_by(word) %>%
  filter(n() >= 20) %>%
  pairwise_cor(word, section, sort = TRUE)

word_cors
```

    ## # A tibble: 154,842 x 3
    ##    item1     item2     correlation
    ##    <chr>     <chr>           <dbl>
    ##  1 bourgh    de              0.962
    ##  2 de        bourgh          0.962
    ##  3 pounds    thousand        0.769
    ##  4 thousand  pounds          0.769
    ##  5 catherine lady            0.750
    ##  6 lady      catherine       0.750
    ##  7 william   sir             0.706
    ##  8 sir       william         0.706
    ##  9 forster   colonel         0.603
    ## 10 colonel   forster         0.603
    ## # ... with 154,832 more rows

This output format is helpful for exploration. For example, we could find the words most correlated with a word like "pounds" using a `filter` operation.

``` r
word_cors %>%
  filter(item1 == "pounds")
```

    ## # A tibble: 393 x 3
    ##    item1  item2       correlation
    ##    <chr>  <chr>             <dbl>
    ##  1 pounds thousand         0.769 
    ##  2 pounds ten              0.328 
    ##  3 pounds wickham's        0.204 
    ##  4 pounds settled          0.169 
    ##  5 pounds children         0.146 
    ##  6 pounds fortune          0.121 
    ##  7 pounds ready            0.106 
    ##  8 pounds particulars      0.106 
    ##  9 pounds town             0.101 
    ## 10 pounds believed         0.0959
    ## # ... with 383 more rows
…
