…
    ## [1] "aaron"      "abandon"    "abandoned"  "abandoning" "abbott"     "abboud"

If we wanted to analyze this data with tidy tools, we would first need to turn it into a data frame with one-token-per-document-per-row. The broom package introduced the `tidy()` verb, which takes a non-tidy object and turns it into a tidy data frame. The tidytext package implements this method for `DocumentTermMatrix` objects.

``` r
library(dplyr)
library(tidytext)

ap_td <- tidy(AssociatedPress)
ap_td
```

    ## # A tibble: 302,031 x 3
    ##    document term       count
    ##       <int> <chr>      <dbl>
    ##  1        1 adding         1
    ##  2        1 adult          2
    ##  3        1 ago            1
    ##  4        1 alcohol        1
    ##  5        1 allegedly      1
    ##  6        1 allen          1
    ##  7        1 apparently     2
    ##  8        1 appeared       1
    ##  9        1 arrested       1
    ## 10        1 assault        1
    ## # ... with 302,021 more rows

Notice that we now have a tidy three-column `tbl_df`, with variables `document`, `term`, and `count`. This tidying operation is similar to the `melt()` function from the reshape2 package for non-sparse matrices.

> Notice that only the non-zero values are included in the tidied output: document 1 includes terms such as "adding" and "adult", but not "aaron" or "abandon". This means the tidied version has no rows where `count` is zero.

As we've seen in previous chapters, this form is convenient for analysis with the dplyr, tidytext and ggplot2 packages. For example, you can perform sentiment analysis on these newspaper articles with the approach described in Chapter 2.

``` r
ap_sentiments <- ap_td %>%
  inner_join(get_sentiments("bing"), by = c(term = "word"))

ap_sentiments
```

    ## # A tibble: 30,094 x 4
    ##    document term    count sentiment
    ##       <int> <chr>   <dbl> <chr>    
    ##  1        1 assault     1 negative 
    ##  2        1 complex     1 negative 
    ##  3        1 death       1 negative 
    ##  4        1 died        1 negative 
    ##  5        1 good        2 positive 
    ##  6        1 illness     1 negative 
    ##  7        1 killed      2 negative 
    ##  8        1 like        2 positive 
    ##  9        1 liked       1 positive 
    ## 10        1 miracle     1 positive 
    ## # ... with 30,084 more rows
…
``` r
inaug_dfm
```

    ## Document-feature matrix of: 58 documents, 9,357 features (91.8% sparse).

The `tidy` method works on these document-feature matrices as well, turning them into a one-token-per-document-per-row table:

``` r
inaug_td <- tidy(inaug_dfm)
inaug_td
```

    ## # A tibble: 44,709 x 3
    ##    document        term            count
    ##    <chr>           <chr>           <dbl>
    ##  1 1789-Washington fellow-citizens     1
    ##  2 1797-Adams      fellow-citizens     3
    ##  3 1801-Jefferson  fellow-citizens     2
    ##  4 1809-Madison    fellow-citizens     1
    ##  5 1813-Madison    fellow-citizens     1
    ##  6 1817-Monroe     fellow-citizens     5
    ##  7 1821-Monroe     fellow-citizens     1
    ##  8 1841-Harrison   fellow-citizens    11
    ##  9 1845-Polk       fellow-citizens     1
    ## 10 1849-Taylor     fellow-citizens     1
    ## # ... with 44,699 more rows

We may be interested in finding the words most specific to each of the inaugural speeches. This could be quantified by calculating the tf-idf of each term-speech pair using the `bind_tf_idf()` function, as described in Chapter 3.

``` r
inaug_tf_idf <- inaug_td %>%
  bind_tf_idf(term, document, count) %>%
  arrange(desc(tf_idf))

inaug_tf_idf
```

    ## # A tibble: 44,709 x 6
    ##    document        term        count      tf   idf tf_idf
    ##    <chr>           <chr>       <dbl>   <dbl> <dbl>  <dbl>
    ##  1 1793-Washington arrive          1 0.00680  4.06 0.0276
    ##  2 1793-Washington upbraidings     1 0.00680  4.06 0.0276
    ##  3 1793-Washington violated        1 0.00680  3.37 0.0229
    ##  4 1793-Washington willingly       1 0.00680  3.37 0.0229
    ##  5 1793-Washington incurring       1 0.00680  3.37 0.0229
    ##  6 1793-Washington previous        1 0.00680  2.96 0.0201
    ##  7 1793-Washington knowingly       1 0.00680  2.96 0.0201
    ##  8 1793-Washington injunctions     1 0.00680  2.96 0.0201
    ##  9 1793-Washington witnesses       1 0.00680  2.96 0.0201
    ## 10 1793-Washington besides         1 0.00680  2.67 0.0182
    ## # ... with 44,699 more rows
…
year_term_counts <- inaug_td %>%
  extract(document, "year", "(\\d+)", convert = TRUE) %>%
    # tidyr::extract - extract one column into multiple columns
    #   extract(df, old_col, new_cols, regex, remove[=TRUE], convert)
  complete(year, term, fill = list(count = 0)) %>%
    # tidyr::complete - turns implicit missing values
    #                   into explicit missing values
  group_by(year) %>%
  mutate(year_total = sum(count))

year_term_counts
```

    ## # A tibble: 542,706 x 4
    ## # Groups:   year [58]
    ##     year term  count year_total
    ##    <int> <chr> <dbl>      <dbl>
    ##  1  1789 -         2       1538
    ##  2  1789 ,        70       1538
    ##  3  1789 ;         8       1538
    ##  4  1789 :         1       1538
    ##  5  1789 !         0       1538
    ##  6  1789 ?         0       1538
    ##  7  1789 .        23       1538
    ##  8  1789 '         0       1538
    ##  9  1789 "\""      2       1538
    ## 10  1789 (         1       1538
    ## # ... with 542,696 more rows
…
    ## <<PlainTextDocument>>
    ## Metadata:  15
    ## Content:  chars: 1287

A corpus object is structured like a list, with each item containing both text and metadata (see the tm documentation for more on working with Corpus documents). This is a flexible storage method for documents, but doesn't lend itself to processing with tidy tools.

We can thus use the `tidy()` method to construct a table with one row per document, including the metadata (such as `id` and `datetimestamp`) as columns alongside the `text`.

``` r
acq_td <- tidy(acq)
acq_td
```

    ## # A tibble: 50 x 16
    ##    author  datetimestamp       description heading id    language origin topics lewissplit cgisplit
    ##    <chr>   <dttm>              <chr>       <chr>   <chr> <chr>    <chr>  <chr>  <chr>      <chr>   
    ##  1 <NA>    1987-02-26 23:18:06 ""          COMPUT… 10    en       Reute… YES    TRAIN      TRAININ…
    ##  2 <NA>    1987-02-26 23:19:15 ""          OHIO M… 12    en       Reute… YES    TRAIN      TRAININ…
    ##  3 <NA>    1987-02-26 23:49:56 ""          MCLEAN… 44    en       Reute… YES    TRAIN      TRAININ…
    ##  4 By Cal… 1987-02-26 23:51:17 ""          CHEMLA… 45    en       Reute… YES    TRAIN      TRAININ…
    ##  5 <NA>    1987-02-27 00:08:33 ""          <COFAB… 68    en       Reute… YES    TRAIN      TRAININ…
    ##  6 <NA>    1987-02-27 00:32:37 ""          INVEST… 96    en       Reute… YES    TRAIN      TRAININ…
    ##  7 By Pat… 1987-02-27 00:43:13 ""          AMERIC… 110   en       Reute… YES    TRAIN      TRAININ…
    ##  8 <NA>    1987-02-27 00:59:25 ""          HONG K… 125   en       Reute… YES    TRAIN      TRAININ…
    ##  9 <NA>    1987-02-27 01:01:28 ""          LIEBER… 128   en       Reute… YES    TRAIN      TRAININ…
    ## 10 <NA>    1987-02-27 01:08:27 ""          GULF A… 134   en       Reute… YES    TRAIN      TRAININ…
    ##    oldid places   people orgs  exchanges text                                                      
    ##    <chr> <list>   <lgl>  <lgl> <lgl>     <chr>                                                     
    ##  1 5553  <chr [1… NA     NA    NA        "Computer Terminal Systems Inc said\nit has completed the…
    ##  2 5555  <chr [1… NA     NA    NA        "Ohio Mattress Co said its first\nquarter, ending Februar…
    ##  3 5587  <chr [1… NA     NA    NA        "McLean Industries Inc's United\nStates Lines Inc subsidi…
    ##  4 5588  <chr [1… NA     NA    NA        "ChemLawn Corp <CHEM> could attract a\nhigher bid than th…
    ##  5 5611  <chr [1… NA     NA    NA        "CoFAB Inc said it acquired <Gulfex Inc>,\na Houston-base…
    ##  6 5639  <chr [1… NA     NA    NA        "A group of affiliated New York\ninvestment firms said th…
    ##  7 5653  <chr [1… NA     NA    NA        "American Express Co remained silent on\nmarket rumors it…
    ##  8 5668  <chr [1… NA     NA    NA        "Industrial Equity (Pacific) Ltd, a\nHong Kong investment…
    ##  9 5671  <chr [1… NA     NA    NA        "Liebert Corp said its shareholders\napproved the merger …
    ## 10 5677  <chr [1… NA     NA    NA        "Gulf Applied Technologies Inc said it\nsold its subsidia…
    ## # ... with 40 more rows

This can then be used with `unnest_tokens()` to, for example, find the most common words across the 50 Reuters articles, or the ones most specific to each article.

``` r
acq_tokens <- acq_td %>%
  select(-places) %>%
  unnest_tokens(word, text) %>%
  anti_join(stop_words, by = "word")

# most common words
acq_tokens %>%
  count(word, sort = TRUE)
```

    ## # A tibble: 1,566 x 2
    ##    word         n
    ##    <chr>    <int>
    ##  1 dlrs       100
    ##  2 pct         70
    ##  3 mln         65
    ##  4 company     63
    ##  5 shares      52
    ##  6 reuter      50
    ##  7 stock       46
    ##  8 offer       34
    ##  9 share       34
    ## 10 american    28
    ## # ... with 1,556 more rows

``` r
# tf-idf
acq_tokens %>%
  count(id, word) %>%
  bind_tf_idf(word, id, n) %>%
  arrange(desc(tf_idf))
```

    ## # A tibble: 2,853 x 6
    ##    id    word         n     tf   idf tf_idf
    ##    <chr> <chr>    <int>  <dbl> <dbl>  <dbl>
    ##  1 186   groupe       2 0.133   3.91  0.522
    ##  2 128   liebert      3 0.130   3.91  0.510
    ##  3 474   esselte      5 0.109   3.91  0.425
    ##  4 371   burdett      6 0.103   3.91  0.405
    ##  5 442   hazleton     4 0.103   3.91  0.401
    ##  6 199   circuit      5 0.102   3.91  0.399
    ##  7 162   suffield     2 0.1     3.91  0.391
    ##  8 498   west         3 0.1     3.91  0.391
    ##  9 441   rmj          8 0.121   3.22  0.390
    ## 10 467   nursery      3 0.0968  3.91  0.379
    ## # ... with 2,843 more rows
…
Each of the items in the `corpus` list column is a `WebCorpus` object, which is a special case of a corpus like `acq`. We can thus turn each into a data frame using the `tidy()` function, unnest it with tidyr's `unnest()`, then tokenize the `text` column of the individual articles using `unnest_tokens()`.

``` r
stock_tokens <- stock_articles %>%
  unnest(map(corpus, tidy)) %>%
  # unnest: if you have a list-column, this makes each
  #         element of the list its own row
  unnest_tokens(word, text) %>%
  select(company, datetimestamp, word, id, heading)

stock_tokens
```

    ## # A tibble: 105,057 x 5
    ##    company   datetimestamp       word        id                                           
    ##    <chr>     <dttm>              <chr>       <chr>                                        
    ##  1 Microsoft 2017-01-17 20:07:24 microsoft   tag:finance.google.com,cluster:52779347599411
    ##  2 Microsoft 2017-01-17 20:07:24 corporation tag:finance.google.com,cluster:52779347599411
    ##  3 Microsoft 2017-01-17 20:07:24 data        tag:finance.google.com,cluster:52779347599411
    ##  4 Microsoft 2017-01-17 20:07:24 privacy     tag:finance.google.com,cluster:52779347599411
    ##  5 Microsoft 2017-01-17 20:07:24 could       tag:finance.google.com,cluster:52779347599411
    ##  6 Microsoft 2017-01-17 20:07:24 send        tag:finance.google.com,cluster:52779347599411
    ##  7 Microsoft 2017-01-17 20:07:24 msft        tag:finance.google.com,cluster:52779347599411
    ##  8 Microsoft 2017-01-17 20:07:24 stock       tag:finance.google.com,cluster:52779347599411
    ##  9 Microsoft 2017-01-17 20:07:24 soaring     tag:finance.google.com,cluster:52779347599411
    ## 10 Microsoft 2017-01-17 20:07:24 by          tag:finance.google.com,cluster:52779347599411
    ##    heading                                                                      
    ##    <chr>                                                                        
    ##  1 Microsoft Corporation: &quot;Data Privacy&quot; Could Send MSFT Stock Soaring
    ##  2 Microsoft Corporation: &quot;Data Privacy&quot; Could Send MSFT Stock Soaring
    ##  3 Microsoft Corporation: &quot;Data Privacy&quot; Could Send MSFT Stock Soaring
    ##  4 Microsoft Corporation: &quot;Data Privacy&quot; Could Send MSFT Stock Soaring
    ##  5 Microsoft Corporation: &quot;Data Privacy&quot; Could Send MSFT Stock Soaring
    ##  6 Microsoft Corporation: &quot;Data Privacy&quot; Could Send MSFT Stock Soaring
    ##  7 Microsoft Corporation: &quot;Data Privacy&quot; Could Send MSFT Stock Soaring
    ##  8 Microsoft Corporation: &quot;Data Privacy&quot; Could Send MSFT Stock Soaring
    ##  9 Microsoft Corporation: &quot;Data Privacy&quot; Could Send MSFT Stock Soaring
    ## 10 Microsoft Corporation: &quot;Data Privacy&quot; Could Send MSFT Stock Soaring
    ## # ... with 105,047 more rows
…
