…
### 8.1.1 Wrangling and tidying the data

Let’s set up separate tidy data frames for title, description, and
keyword, keeping the dataset ids for each so that we can connect them
later in the analysis if necessary.

``` r
library(dplyr)

nasa_title <- data_frame(id    = metadata$dataset$`_id`$`$oid`,
                         title = metadata$dataset$title)
nasa_title
```

    ## # A tibble: 32,089 x 2
    ##    id                       title                                              
    ##    <chr>                    <chr>                                              
    ##  1 55942a57c63a7fe59b495a77 15 Minute Stream Flow Data: USGS (FIFE)            
    ##  2 55942a57c63a7fe59b495a78 15 Minute Stream Flow Data: USGS (FIFE)            
    ##  3 55942a58c63a7fe59b495a79 15 Minute Stream Flow Data: USGS (FIFE)            
    ##  4 55942a58c63a7fe59b495a7a 2000 Pilot Environmental Sustainability Index (ESI)
    ##  5 55942a58c63a7fe59b495a7b 2000 Pilot Environmental Sustainability Index (ESI)
    ##  6 55942a58c63a7fe59b495a7c 2000 Pilot Environmental Sustainability Index (ESI)
    ##  7 55942a58c63a7fe59b495a7d 2001 Environmental Sustainability Index (ESI)      
    ##  8 55942a58c63a7fe59b495a7e 2001 Environmental Sustainability Index (ESI)      
    ##  9 55942a58c63a7fe59b495a7f 2001 Environmental Sustainability Index (ESI)      
    ## 10 55942a58c63a7fe59b495a80 2001 Environmental Sustainability Index (ESI)      
    ## # … with 32,079 more rows
…
Now we can build the tidy data frame for the keywords. For this one, we
need to use `unnest()` from tidyr, because they are in a list-column.

``` r
library(tidyr)

nasa_keyword <- data_frame(id      = metadata$dataset$`_id`$`$oid`,
                           keyword = metadata$dataset$keyword) %>%
  unnest(keyword)

nasa_keyword
```

    ## # A tibble: 126,814 x 2
    ##    id                       keyword      
    ##    <chr>                    <chr>        
    ##  1 55942a57c63a7fe59b495a77 EARTH SCIENCE
    ##  2 55942a57c63a7fe59b495a77 HYDROSPHERE  
    ##  3 55942a57c63a7fe59b495a77 SURFACE WATER
    ##  4 55942a57c63a7fe59b495a78 EARTH SCIENCE
    ##  5 55942a57c63a7fe59b495a78 HYDROSPHERE  
    ##  6 55942a57c63a7fe59b495a78 SURFACE WATER
    ##  7 55942a58c63a7fe59b495a79 EARTH SCIENCE
    ##  8 55942a58c63a7fe59b495a79 HYDROSPHERE  
    ##  9 55942a58c63a7fe59b495a79 SURFACE WATER
    ## 10 55942a58c63a7fe59b495a7a EARTH SCIENCE
    ## # … with 126,804 more rows
…
nasa_desc <- nasa_desc %>%
  unnest_tokens(word, desc) %>%
  anti_join(stop_words)
```

These are now in the tidy text format that we have been working with
throughout this book, with one token (word, in this case) per row; let’s
take a look before we move on in our analysis.

``` r
nasa_title
nasa_desc
```

    ## # A tibble: 210,914 x 2
    ##    id                       word  
    ##    <chr>                    <chr> 
    ##  1 55942a57c63a7fe59b495a77 15    
    ##  2 55942a57c63a7fe59b495a77 minute
    ##  3 55942a57c63a7fe59b495a77 stream
    ##  4 55942a57c63a7fe59b495a77 flow  
    ##  5 55942a57c63a7fe59b495a77 data  
    ##  6 55942a57c63a7fe59b495a77 usgs  
    ##  7 55942a57c63a7fe59b495a77 fife  
    ##  8 55942a57c63a7fe59b495a78 15    
    ##  9 55942a57c63a7fe59b495a78 minute
    ## 10 55942a57c63a7fe59b495a78 stream
    ## # … with 210,904 more rows
    ## # A tibble: 2,677,811 x 2
    ##    id                       word   
    ##    <chr>                    <chr>  
    ##  1 55942a57c63a7fe59b495a77 usgs   
    ##  2 55942a57c63a7fe59b495a77 15     
    ##  3 55942a57c63a7fe59b495a77 minute 
    ##  4 55942a57c63a7fe59b495a77 stream 
    ##  5 55942a57c63a7fe59b495a77 flow   
    ##  6 55942a57c63a7fe59b495a77 data   
    ##  7 55942a57c63a7fe59b495a77 kings  
    ##  8 55942a57c63a7fe59b495a77 creek  
    ##  9 55942a57c63a7fe59b495a77 konza  
    ## 10 55942a57c63a7fe59b495a77 prairie
    ## # … with 2,677,801 more rows

### 8.1.2 Some initial simple exploration

What are the most common words in the NASA dataset titles? We can use
`count()` from dplyr to check this out.

``` r
nasa_title %>%
  count(word, sort = TRUE)
```

    ## # A tibble: 11,614 x 2
    ##    word        n
    ##    <chr>   <int>
    ##  1 project  7735
    ##  2 data     3354
    ##  3 1        2841
    ##  4 level    2400
    ##  5 global   1809
    ##  6 v1       1478
    ##  7 daily    1397
    ##  8 3        1364
    ##  9 aura     1363
    ## 10 l2       1311
    ## # … with 11,604 more rows

What about the descriptions?

``` r
nasa_desc %>%
  count(word, sort = TRUE)
```

    ## # A tibble: 35,940 x 2
    ##    word           n
    ##    <chr>      <int>
    ##  1 data       68871
    ##  2 modis      24420
    ##  3 global     23028
    ##  4 2          16599
    ##  5 1          15770
    ##  6 system     15480
    ##  7 product    14780
    ##  8 aqua       14738
    ##  9 earth      14373
    ## 10 resolution 13879
    ## # … with 35,930 more rows
…
What are the most common keywords?

``` r
nasa_keyword %>%
  group_by(keyword) %>%
  count(sort = TRUE)

# this is the same as
# nasa_keyword %>%
#   count(keyword, sort = TRUE)
```

    ## # A tibble: 1,774 x 2
    ## # Groups:   keyword [1,774]
    ##    keyword                     n
    ##    <chr>                   <int>
    ##  1 EARTH SCIENCE           14362
    ##  2 Project                  7452
    ##  3 ATMOSPHERE               7321
    ##  4 Ocean Color              7268
    ##  5 Ocean Optics             7268
    ##  6 Oceans                   7268
    ##  7 completed                6452
    ##  8 ATMOSPHERIC WATER VAPOR  3142
    ##  9 OCEANS                   2765
    ## 10 LAND SURFACE             2720
    ## # … with 1,764 more rows
…
We can use `pairwise_count()` from the widyr package to count how many
times each pair of words occurs together in a title or description
field.

``` r
library(widyr)

title_word_pairs <- nasa_title %>%
  pairwise_count(word, id, sort = TRUE, upper = FALSE)
  # upper: whether to include upper triangle, which may be duplicated

title_word_pairs
```

    ## # A tibble: 156,689 x 3
    ##    item1  item2       n
    ##    <chr>  <chr>   <dbl>
    ##  1 system project   796
    ##  2 lba    eco       683
    ##  3 airs   aqua      641
    ##  4 level  aqua      623
    ##  5 level  airs      612
    ##  6 aura   omi       607
    ##  7 global grid      597
    ##  8 global daily     574
    ##  9 data   boreas    551
    ## 10 ground gpm       550
    ## # … with 156,679 more rows

These are the pairs of words that occur together most often in title
fields. Some of these words are obviously acronyms used within NASA, and
we see how often words like “project” and “system” are used.

``` r
desc_word_pairs <- nasa_desc %>%
  pairwise_count(word, id, sort = TRUE, upper = FALSE)

desc_word_pairs
```

    ## # A tibble: 10,889,084 x 3
    ##    item1      item2          n
    ##    <chr>      <chr>      <dbl>
    ##  1 data       global      9864
    ##  2 data       resolution  9302
    ##  3 instrument resolution  8189
    ##  4 data       surface     8180
    ##  5 global     resolution  8139
    ##  6 data       instrument  7994
    ##  7 data       system      7870
    ##  8 resolution bands       7584
    ##  9 data       earth       7576
    ## 10 orbit      resolution  7462
    ## # … with 10,889,074 more rows
…
keyword_pairs

set.seed(1234)
keyword_pairs %>%
  filter(n >= 700) %>%
  graph_from_data_frame() %>%
  ggraph(layout = "fr") +
  geom_edge_link(aes(edge_alpha = n, edge_width = n), edge_colour = "royalblue") +
  geom_node_point(size = 5) +
  geom_node_text(aes(label = name), repel = TRUE,
                 point.padding = unit(0.2, "lines")) +
  theme_void()
```

    ## # A tibble: 13,390 x 3
    ##    item1         item2                       n
    ##    <chr>         <chr>                   <dbl>
    ##  1 OCEANS        OCEAN OPTICS             7324
    ##  2 EARTH SCIENCE ATMOSPHERE               7318
    ##  3 OCEANS        OCEAN COLOR              7270
    ##  4 OCEAN OPTICS  OCEAN COLOR              7270
    ##  5 PROJECT       COMPLETED                6450
    ##  6 EARTH SCIENCE ATMOSPHERIC WATER VAPOR  3142
    ##  7 ATMOSPHERE    ATMOSPHERIC WATER VAPOR  3142
    ##  8 EARTH SCIENCE OCEANS                   2762
    ##  9 EARTH SCIENCE LAND SURFACE             2718
    ## 10 EARTH SCIENCE BIOSPHERE                2448
    ## # … with 13,380 more rows
…
To examine the relationships among keywords in a different way, we can
find the correlation among the keywords as described in Chapter 4. This
looks for those keywords that are more likely to occur together than
with other keywords.

``` r
keyword_cors <- nasa_keyword %>%
  group_by(keyword) %>%
  filter(n() >= 50) %>%
  pairwise_cor(keyword, id, sort = TRUE, upper = FALSE)

keyword_cors
```

    ## # A tibble: 7,875 x 3
    ##    item1               item2       correlation
    ##    <chr>               <chr>             <dbl>
    ##  1 KNOWLEDGE           SHARING           1.   
    ##  2 DASHLINK            AMES              1    
    ##  3 SCHEDULE            EXPEDITION        1.000
    ##  4 TURBULENCE          MODELS            0.997
    ##  5 APPEL               KNOWLEDGE         0.997
    ##  6 APPEL               SHARING           0.997
    ##  7 OCEAN OPTICS        OCEAN COLOR       0.995
    ##  8 ATMOSPHERIC SCIENCE CLOUD             0.994
    ##  9 LAUNCH              SCHEDULE          0.984
    ## 10 LAUNCH              EXPEDITION        0.984
    ## # … with 7,865 more rows
…
``` r
desc_tf_idf <- nasa_desc %>%
  count(id, word, sort = TRUE) %>%
  ungroup() %>%
  bind_tf_idf(word, id, n)
```

What are the highest tf-idf words in the NASA description fields?

``` r
desc_tf_idf %>%
  arrange(-tf_idf)
```

    ## # A tibble: 1,913,224 x 6
    ##    id                       word                                              n    tf   idf tf_idf
    ##    <chr>                    <chr>                                         <int> <dbl> <dbl>  <dbl>
    ##  1 55942a7cc63a7fe59b49774a rdr                                               1     1 10.4   10.4 
    ##  2 55942ac9c63a7fe59b49b688 palsar_radiometric_terrain_corrected_high_res     1     1 10.4   10.4 
    ##  3 55942ac9c63a7fe59b49b689 palsar_radiometric_terrain_corrected_low_res      1     1 10.4   10.4 
    ##  4 55942a7bc63a7fe59b4976ca lgrs                                              1     1  8.77   8.77
    ##  5 55942a7bc63a7fe59b4976d2 lgrs                                              1     1  8.77   8.77
    ##  6 55942a7bc63a7fe59b4976e3 lgrs                                              1     1  8.77   8.77
    ##  7 55942a7dc63a7fe59b497820 mri                                               1     1  8.58   8.58
    ##  8 55942ad8c63a7fe59b49cf6c template_proddescription                          1     1  8.30   8.30
    ##  9 55942ad8c63a7fe59b49cf6d template_proddescription                          1     1  8.30   8.30
    ## 10 55942ad8c63a7fe59b49cf6e template_proddescription                          1     1  8.30   8.30
    ## # … with 1,913,214 more rows
…
### 8.3.2 Connecting description fields to keywords

We now know which words in the descriptions have high tf-idf, and we
also have labels for these descriptions in the keywords. Let’s do a full
join of the keyword data frame and the data frame of description words
with tf-idf, and then find the highest tf-idf words for a given keyword.

``` r
desc_tf_idf <- full_join(desc_tf_idf, nasa_keyword, by = "id")

desc_tf_idf
```

    ## # A tibble: 7,749,613 x 7
    ##    id                       word      n     tf   idf tf_idf keyword             
    ##    <chr>                    <chr> <int>  <dbl> <dbl>  <dbl> <chr>               
    ##  1 55942a88c63a7fe59b498280 amp     679 0.397   3.18  1.26  ELEMENT             
    ##  2 55942a88c63a7fe59b498280 amp     679 0.397   3.18  1.26  JOHNSON SPACE CENTER
    ##  3 55942a88c63a7fe59b498280 amp     679 0.397   3.18  1.26  VOR                 
    ##  4 55942a88c63a7fe59b498280 amp     679 0.397   3.18  1.26  ACTIVE              
    ##  5 55942a88c63a7fe59b498280 nbsp    655 0.383   4.21  1.61  ELEMENT             
    ##  6 55942a88c63a7fe59b498280 nbsp    655 0.383   4.21  1.61  JOHNSON SPACE CENTER
    ##  7 55942a88c63a7fe59b498280 nbsp    655 0.383   4.21  1.61  VOR                 
    ##  8 55942a88c63a7fe59b498280 nbsp    655 0.383   4.21  1.61  ACTIVE              
    ##  9 55942a8ec63a7fe59b4986ef gt      330 0.0926  3.23  0.299 JOHNSON SPACE CENTER
    ## 10 55942a8ec63a7fe59b4986ef gt      330 0.0926  3.23  0.299 PROJECT             
    ## # … with 7,749,603 more rows
…
word_counts <- nasa_desc %>%
  anti_join(my_stop_words) %>%
  count(id, word, sort = TRUE) %>%
  ungroup()

word_counts
```

    ## # A tibble: 1,895,310 x 3
    ##    id                       word         n
    ##    <chr>                    <chr>    <int>
    ##  1 55942a8ec63a7fe59b4986ef suit        82
    ##  2 55942a8ec63a7fe59b4986ef space       69
    ##  3 56cf5b00a759fdadc44e564a data        41
    ##  4 56cf5b00a759fdadc44e564a leak        40
    ##  5 56cf5b00a759fdadc44e564a tree        39
    ##  6 55942a8ec63a7fe59b4986ef pressure    34
    ##  7 55942a8ec63a7fe59b4986ef system      34
    ##  8 55942a89c63a7fe59b4982d9 em          32
    ##  9 55942a8ec63a7fe59b4986ef al          32
    ## 10 55942a8ec63a7fe59b4986ef human       31
    ## # … with 1,895,300 more rows
…
### 8.4.3 Interpreting the topic model

Now that we have built the model, let’s `tidy()` the results of the
model, i.e., construct a tidy data frame that summarizes the results of
the model. The tidytext package includes a tidying method for LDA models
from the topicmodels package.

``` r
tidy_lda <- tidy(desc_lda)

tidy_lda
```

    ## # A tibble: 861,624 x 3
    ##    topic term       beta
    ##    <int> <chr>     <dbl>
    ##  1     1 suit  1.00e-121
    ##  2     2 suit  2.63e-145
    ##  3     3 suit  1.92e- 79
    ##  4     4 suit  6.72e- 45
    ##  5     5 suit  1.74e- 85
    ##  6     6 suit  7.69e- 84
    ##  7     7 suit  3.28e-  4
    ##  8     8 suit  3.74e- 20
    ##  9     9 suit  4.85e- 15
    ## 10    10 suit  4.77e- 10
    ## # … with 861,614 more rows
…
What is each topic about? Let’s examine the top 10 terms for each topic.

``` r
top_terms <- tidy_lda %>%
  group_by(topic) %>%
  top_n(10, beta) %>%
  ungroup() %>%
  arrange(topic, -beta)

top_terms
```

    ## # A tibble: 240 x 3
    ##    topic term          beta
    ##    <int> <chr>        <dbl>
    ##  1     1 data        0.0449
    ##  2     1 soil        0.0368
    ##  3     1 moisture    0.0295
    ##  4     1 amsr        0.0244
    ##  5     1 sst         0.0168
    ##  6     1 validation  0.0132
    ##  7     1 temperature 0.0132
    ##  8     1 surface     0.0129
    ##  9     1 accuracy    0.0123
    ## 10     1 set         0.0116
    ## # … with 230 more rows
…
We just explored which words are associated with which topics. Next,
let’s examine which topics are associated with which description
fields (i.e., documents). We will look at a different probability for
this, \(\gamma\), the probability that each document belongs in each
topic, again using the `tidy` verb.

``` r
lda_gamma <- tidy(desc_lda, matrix = "gamma")

lda_gamma
```

    ## # A tibble: 768,072 x 3
    ##    document                 topic      gamma
    ##    <chr>                    <int>      <dbl>
    ##  1 55942a8ec63a7fe59b4986ef     1 0.00000645
    ##  2 56cf5b00a759fdadc44e564a     1 0.0000116 
    ##  3 55942a89c63a7fe59b4982d9     1 0.0492    
    ##  4 56cf5b00a759fdadc44e55cd     1 0.0000225 
    ##  5 55942a89c63a7fe59b4982c6     1 0.0000661 
    ##  6 55942a86c63a7fe59b498077     1 0.0000567 
    ##  7 56cf5b00a759fdadc44e56f8     1 0.0000475 
    ##  8 55942a8bc63a7fe59b4984b5     1 0.0000431 
    ##  9 55942a6ec63a7fe59b496bf7     1 0.0000441 
    ## 10 55942a8ec63a7fe59b4986f6     1 0.0000288 
    ## # … with 768,062 more rows
…
### 8.4.4 Connecting topic modeling with keywords

Let’s connect these topic models with the keywords and see what
relationships we can find. We can `full_join()` this to the human-tagged
keywords and discover which keywords are associated with which
topic.

``` r
lda_gamma <- full_join(lda_gamma, nasa_keyword, by = c("document" = "id"))

lda_gamma
```

    ## # A tibble: 3,037,671 x 4
    ##    document                 topic      gamma keyword                    
    ##    <chr>                    <int>      <dbl> <chr>                      
    ##  1 55942a8ec63a7fe59b4986ef     1 0.00000645 JOHNSON SPACE CENTER       
    ##  2 55942a8ec63a7fe59b4986ef     1 0.00000645 PROJECT                    
    ##  3 55942a8ec63a7fe59b4986ef     1 0.00000645 COMPLETED                  
    ##  4 56cf5b00a759fdadc44e564a     1 0.0000116  DASHLINK                   
    ##  5 56cf5b00a759fdadc44e564a     1 0.0000116  AMES                       
    ##  6 56cf5b00a759fdadc44e564a     1 0.0000116  NASA                       
    ##  7 55942a89c63a7fe59b4982d9     1 0.0492     GODDARD SPACE FLIGHT CENTER
    ##  8 55942a89c63a7fe59b4982d9     1 0.0492     PROJECT                    
    ##  9 55942a89c63a7fe59b4982d9     1 0.0492     COMPLETED                  
    ## 10 56cf5b00a759fdadc44e55cd     1 0.0000225  DASHLINK                   
    ## # … with 3,037,661 more rows

Now we can use `filter()` to keep only the document-topic entries that
have probabilities (\(\gamma\)) greater than some cut-off value; let’s
use 0.9.

``` r
top_keywords <- lda_gamma %>%
  filter(gamma > 0.9) %>%
  count(topic, keyword, sort = TRUE)

top_keywords
```

    ## # A tibble: 1,022 x 3
    ##    topic keyword           n
    ##    <int> <chr>         <int>
    ##  1    13 OCEAN COLOR    4480
    ##  2    13 OCEAN OPTICS   4480
    ##  3    13 OCEANS         4480
    ##  4    11 OCEAN COLOR    1216
    ##  5    11 OCEAN OPTICS   1216
    ##  6    11 OCEANS         1216
    ##  7     9 PROJECT         926
    ##  8    12 EARTH SCIENCE   909
    ##  9     9 COMPLETED       834
    ## 10    16 OCEAN COLOR     768
    ## # … with 1,012 more rows
…
